{
  "migIndex": 1,
  "data": [
    {
      "path": "assets/fonts/Mj_Flow-Bold.ttf",
      "sha1": "b0377ee1f0ab8634ec11393fc1632ae3d8c43728"
    },
    {
      "path": "assets/fonts/Mj_Saadi.ttf",
      "sha1": "22f2c57086d55ed19cd5e832e30cdcdaa744cafe"
    }
  ]
}
